{
	"n_vis": 100,
	"interval": [0, 150],

	"pigraphgen":{
        "type": "FM",

        "n_nodes": [800, 800],
        "node_cap": [100, 100],
        "edge_cap": [100, 100]
	},

	"vigraphgen": {
	    "type": "FM",

	    "n_nodes": [2, 30],
	    "node_cap": [1, 10],
	    "edge_cap": [1, 10]
	}

}
